…
`filter()`함수를 이용해 `sta1`에서 `가구소득(income)`을 추출한다. 그 뒤 `group_by()`를 이용해 지역(area)별로 묶은 뒤 `mutate()`함수를 이용하여 지역별 총 여행자 수를 나타내는 `tot_area`와 지역별 여행자 수 비율을 나타내는 `ratio` 두 변수를 생성한다.

``` r
income2 <- travel_new %>% 
  filter(sta1 == "income") %>% 
  group_by(area) %>% 
  select(area,sta2, year_2014, year_2015, year_2016) %>% 
  mutate(tot_area=sum(year_2014,year_2015,year_2016),
         ratio=(year_2014+year_2015+year_2016)/tot_area*100) %>% 
  arrange(area)

income2
```

    ## # A tibble: 136 x 7
    ## # Groups:   area [17]
    ##     area            sta2 year_2014 year_2015 year_2016 tot_area     ratio
    ##    <chr>           <chr>     <dbl>     <dbl>     <dbl>    <dbl>     <dbl>
    ##  1  강원      50만원미만    333056    222083     80182 35525187  1.788368
    ##  2  강원  50-100만원미만    353378    305828    278744 35525187  2.640239
    ##  3  강원 100-200만원미만    876053    986705    761283 35525187  7.386424
    ##  4  강원 200-300만원미만   2094108   1960205   1829766 35525187 16.563119
    ##  5  강원 300-400만원미만   2194155   1610700   2415781 35525187 17.510495
    ##  6  강원 400-500만원미만   2030163   2268972   2213170 35525187 18.331515
    ##  7  강원 500-600만원미만   2209296   1991823   2096862 35525187 17.728214
    ##  8  강원     600만원이상   2192750   2212689   2007435 35525187 18.051626
    ##  9  경기      50만원미만    279076    305635    152790 47562189  1.550604
    ## 10  경기  50-100만원미만    387632    450687    596144 47562189  3.015973
    ## # ... with 126 more rows
…
