…
#### 여성

#### 10년 간 전국을 기준으로 어떤 연령대가 가장 다수를 차지했는지 구하기

``` r
nmarry<-marriage%>%
  select(city,age,year,w)%>%
  filter(city=="전국" & age!="계")%>%
  group_by(age)%>%
  arrange(desc(w))
nmarry
```

    ## # A tibble: 150 x 4
    ## # Groups:   age [15]
    ##      city       age    year      w
    ##    <fctr>    <fctr>  <fctr>  <int>
    ##  1   전국 25 - 29세 2007 년 161676
    ##  2   전국 25 - 29세 2008 년 150195
    ##  3   전국 25 - 29세 2010 년 142014
    ##  4   전국 25 - 29세 2009 년 139409
    ##  5   전국 25 - 29세 2011 년 137781
    ##  6   전국 25 - 29세 2012 년 128008
    ##  7   전국 25 - 29세 2013 년 120921
    ##  8   전국 25 - 29세 2014 년 108362
    ##  9   전국 25 - 29세 2015 년 106107
    ## 10   전국 25 - 29세 2016 년  97440
    ## # ... with 140 more rows
…
