…
•지역별로 변동폭의 차이가 존재하는 원인을 알아보기 위해 추가적으로 분석을 해보았다.

##### 지역별 남성종사자 비율

``` r
region_man<-data %>%
  filter(!is.na(man_ratio1)) %>% 
  group_by(area1,man_ratio1) %>% 
  summarise(n=n()) %>% 
  mutate(tot_group=sum(n)) %>% 
  mutate(pct=round(n/tot_group*100,2))
region_man
```

    ## # A tibble: 22 x 5
    ## # Groups:   area1 [6]
    ##     area1 man_ratio1     n tot_group   pct
    ##     <chr>      <chr> <int>     <int> <dbl>
    ##  1 강원권     26~50%     7        55 12.73
    ##  2 강원권     51~75%    20        55 36.36
    ##  3 강원권    76~100%    28        55 50.91
    ##  4   서울      0~25%     6       432  1.39
    ##  5   서울     26~50%    40       432  9.26
    ##  6   서울     51~75%   172       432 39.81
    ##  7   서울    76~100%   214       432 49.54
    ##  8 수도권      0~25%     2       620  0.32
    ##  9 수도권     26~50%    52       620  8.39
    ## 10 수도권     51~75%   216       620 34.84
    ## # ... with 12 more rows
…
