…
    ##       man   woman local_region year
    ## 1 5679692 6900889         서울 2014
    ## 2 3186234 3478939         부산 2014
    ## 3 1704851 1849836         대구 2014
    ## 4 2085968 2378224         인천 2014
    ## 5 1158819 1104298         광주 2014
    ## 6 1508478 1615149         대전 2014

### 지역과 년도를 중심으로 차례대로 데이터 정리, 성별에 따른 각 지역 여행자수 평균 구함

    a <- df_local_trip %>% group_by(local_region, year) %>%  summarise(mean_man = mean(man), mean_woman = mean(woman))    
    a

    ## # A tibble: 51 x 4
    ## # Groups:   local_region [?]
    ##    local_region   year mean_man mean_woman
    ##          <fctr> <fctr>    <dbl>      <dbl>
    ##  1         강원   2014  5990236    6292723
    ##  2         강원   2015  5663455    5895550
    ##  3         강원   2016  5747317    5935906
    ##  4         경기   2014  7186353    8097374
    ##  5         경기   2015  7334898    8116857
    ##  6         경기   2016  7985308    8841398
    ##  7         경남   2014  4670726    5018457
    ##  8         경남   2015  4148802    4330765
    ##  9         경남   2016  4538624    4943734
    ## 10         경북   2014  4684999    4943875
    ## # ... with 41 more rows
…
