…
``` r
library(readxl)
```

    ## Warning: package 'readxl' was built under R version 3.4.2

다음으로 데이터를 불러온다. `read_excel()`을 이용해 데이터를 불러온 뒤, 데이터 sheet를 사용하고, 첫 번째 행이 변수명이었으므로 `col_names`는 `T`로 입력한다.

``` r
travel <- read_excel("travel2.xlsx", sheet=1, col_names = T)
travel
```

    ## # A tibble: 476 x 6
    ##    `통계분류(1)` `통계분류(2)`  항목   `2014`   `2015`   `2016`
    ##            <chr>         <chr> <chr>    <dbl>    <dbl>    <dbl>
    ##  1          전체          소계  서울 12580581 12451891 13237854
    ##  2          <NA>          <NA>  부산  6665173  7158553  7414157
    ##  3          <NA>          <NA>  대구  3554687  3163161  3137687
    ##  4          <NA>          <NA>  인천  4464192  4407063  5420706
    ##  5          <NA>          <NA>  광주  2263117  2135332  2401244
    ##  6          <NA>          <NA>  대전  3123627  2984929  3497887
    ##  7          <NA>          <NA>  울산  1787673  1632410  2043956
    ##  8          <NA>          <NA>  세종   366885   333329   740710
    ##  9          <NA>          <NA>  경기 15283727 15451755 16826706
    ## 10          <NA>          <NA>  강원 12282959 11559005 11683223
    ## # ... with 466 more rows
…
데이터 가공 결과, 지역을 중심으로하여 지역별 총합과 지역별 여핼 횟수 비율을 나타내는 변수가 생성됐음을 확인할 수 있다.

``` r
job2
```

    ## # A tibble: 85 x 7
    ## # Groups:   area [17]
    ##     area       sta2 year_2014 year_2015 year_2016 tot_area     ratio
    ##    <chr>      <chr>     <dbl>     <dbl>     <dbl>    <dbl>     <dbl>
    ##  1  강원   전문관리    971986    843097    925180 19555768 14.012556
    ##  2  강원       사무   2500430   2850268   2815579 19555768 41.758917
    ##  3  강원 서비스판매   1581702   1734768   1649393 19555768 25.393342
    ##  4  강원     농어업    452428    472436    414140 19555768  6.847105
    ##  5  강원   기능노무    870346    786508    687507 19555768 11.988079
    ##  6  경기   전문관리   1172266   1138064   1282558 25747708 13.954205
    ##  7  경기       사무   2979533   3451624   3562040 25747708 38.811987
    ##  8  경기 서비스판매   2043061   2456897   2487244 25747708 27.137181
    ##  9  경기     농어업    589496    545427    806358 25747708  7.539626
    ## 10  경기   기능노무   1114156   1035519   1083465 25747708 12.557001
    ## # ... with 75 more rows
…
``` r
totalRatio <- bind_rows(school_ratioE, school_ratioM, school_ratioH, school_ratioC, school_ratioU, school_ratioG)

totalRatio
```

    ## # A tibble: 102 x 3
    ##     city     ratio ratioType
    ##    <chr>     <dbl>     <chr>
    ##  1  강원  4.814517   ratio_e
    ##  2  경기  5.969328   ratio_e
    ##  3  경남  7.228314   ratio_e
    ##  4  경북  5.825935   ratio_e
    ##  5  광주 10.352350   ratio_e
    ##  6  대구  6.045405   ratio_e
    ##  7  대전  6.591847   ratio_e
    ##  8  부산  5.044990   ratio_e
    ##  9  서울  5.976693   ratio_e
    ## 10  세종  3.519478   ratio_e
    ## # ... with 92 more rows
…
