…
``` r
library(readxl)
```

    ## Warning: package 'readxl' was built under R version 3.4.2

다음으로 데이터를 불러온다. `read_excel()`을 이용해 데이터를 불러온 뒤, 데이터 sheet를 사용하고, 첫 번째 행이 변수명이었으므로 `col_names`는 `T`로 입력한다.

``` r
travel <- read_excel("travel2.xlsx", sheet=1, col_names = T)
travel
```

    ## # A tibble: 476 x 6
    ##    `통계분류(1)` `통계분류(2)`  항목   `2014`   `2015`   `2016`
    ##            <chr>         <chr> <chr>    <dbl>    <dbl>    <dbl>
    ##  1          전체          소계  서울 12580581 12451891 13237854
    ##  2          <NA>          <NA>  부산  6665173  7158553  7414157
    ##  3          <NA>          <NA>  대구  3554687  3163161  3137687
    ##  4          <NA>          <NA>  인천  4464192  4407063  5420706
    ##  5          <NA>          <NA>  광주  2263117  2135332  2401244
    ##  6          <NA>          <NA>  대전  3123627  2984929  3497887
    ##  7          <NA>          <NA>  울산  1787673  1632410  2043956
    ##  8          <NA>          <NA>  세종   366885   333329   740710
    ##  9          <NA>          <NA>  경기 15283727 15451755 16826706
    ## 10          <NA>          <NA>  강원 12282959 11559005 11683223
    ## # ... with 466 more rows
…
`bind_rows()`를 이용해 데이터를 추가한다.

``` r
totalRatio <- bind_rows(school_ratioE, school_ratioM, school_ratioH, school_ratioC, school_ratioU, school_ratioG)

totalRatio
```

    ## # A tibble: 102 x 3
    ##     city     ratio ratioType
    ##    <chr>     <dbl>     <chr>
    ##  1  강원  4.814517   ratio_e
    ##  2  경기  5.969328   ratio_e
    ##  3  경남  7.228314   ratio_e
    ##  4  경북  5.825935   ratio_e
    ##  5  광주 10.352350   ratio_e
    ##  6  대구  6.045405   ratio_e
    ##  7  대전  6.591847   ratio_e
    ##  8  부산  5.044990   ratio_e
    ##  9  서울  5.976693   ratio_e
    ## 10  세종  3.519478   ratio_e
    ## # ... with 92 more rows
…
